…
###### 绘制TSS距离分布图
p = plotDistToTSS(peakAnnoList)
plot_df = p$data
plot_df$type = NA
plot_df[which(plot_df$.id=="Peak1"),"type"] = "SA2-201 region"
plot_df[which(plot_df$.id=="Peak2"),"type"] = "SA2-202 region"
plot_df$type = factor(plot_df$type, levels = c("SA2-201 region", "SA2-202 region"))
# # A tibble: 36 × 6
# # Groups:   .id, Feature [18]
#    .id   Feature   sign  freq .group type  
#    <fct> <fct>    <dbl> <dbl>  <int> <fct> 
#  1 Peak3 0-1kb       -1 19.6       6 Common
#  2 Peak3 0-1kb        1 20.1       6 Common
#  3 Peak3 1-3kb       -1  4.44      5 Common
#  4 Peak3 1-3kb        1  4.50      5 Common
#  5 Peak3 3-5kb       -1  2.99      4 Common
#  6 Peak3 3-5kb        1  3.19      4 Common
#  7 Peak3 5-10kb      -1  5.32      3 Common
#  8 Peak3 5-10kb       1  6.00      3 Common
#  9 Peak3 10-100kb    -1 14.2       2 Common
# 10 Peak3 10-100kb     1 16.2       2 Common
# # ℹ 26 more rows
# # ℹ Use `print(n = ...)` to see more rows
```
…
